\relax 
\providecommand\hyper@newdestlabel[2]{}
\catcode `"\active 
\providecommand\HyperFirstAtBeginDocument{\AtBeginDocument}
\HyperFirstAtBeginDocument{\ifx\hyper@anchor\@undefined
\global\let\oldcontentsline\contentsline
\gdef\contentsline#1#2#3#4{\oldcontentsline{#1}{#2}{#3}}
\global\let\oldnewlabel\newlabel
\gdef\newlabel#1#2{\newlabelxx{#1}#2}
\gdef\newlabelxx#1#2#3#4#5#6{\oldnewlabel{#1}{{#2}{#3}}}
\AtEndDocument{\ifx\hyper@anchor\@undefined
\let\contentsline\oldcontentsline
\let\newlabel\oldnewlabel
\fi}
\fi}
\global\let\hyper@last\relax 
\gdef\HyperFirstAtBeginDocument#1{#1}
\providecommand\HyField@AuxAddToFields[1]{}
\providecommand\HyField@AuxAddToCoFields[2]{}
\babel@aux{russian}{}
\@writefile{toc}{\contentsline {section}{\IeC {\CYRM }\IeC {\cyra }\IeC {\cyrt }\IeC {\cyre }\IeC {\cyrr }\IeC {\cyri }\IeC {\cyra }\IeC {\cyrl }\IeC {\cyrery } \IeC {\cyrk } \IeC {\cyrl }\IeC {\cyre }\IeC {\cyrk }\IeC {\cyrc }\IeC {\cyri }\IeC {\cyri } \IeC {\textnumero }9 (\IeC {\CYRM }\IeC {\cyre }\IeC {\cyrt }\IeC {\cyro }\IeC {\cyrd } \IeC {\cyrk }\IeC {\cyro }\IeC {\cyrn }\IeC {\cyrt }\IeC {\cyrr }\IeC {\cyro }\IeC {\cyrl }\IeC {\cyrsftsn }\IeC {\cyrn }\IeC {\cyro }\IeC {\cyrg }\IeC {\cyro } \IeC {\cyro }\IeC {\cyrb }\IeC {\cyrhrdsn }\IeC {\cyre }\IeC {\cyrm }\IeC {\cyra } \IeC {\cyrv } OpenFOAM. \IeC {\CYRA }\IeC {\cyrp }\IeC {\cyrp }\IeC {\cyrr }\IeC {\cyro }\IeC {\cyrk }\IeC {\cyrs }\IeC {\cyri }\IeC {\cyrm }\IeC {\cyra }\IeC {\cyrc }\IeC {\cyri }\IeC {\cyrya } \IeC {\cyrp }\IeC {\cyrr }\IeC {\cyro }\IeC {\cyri }\IeC {\cyrz }\IeC {\cyrv }\IeC {\cyro }\IeC {\cyrd }\IeC {\cyrn }\IeC {\cyro }\IeC {\cyrishrt } \IeC {\cyrp }\IeC {\cyro } \IeC {\cyrv }\IeC {\cyrr }\IeC {\cyre }\IeC {\cyrm }\IeC {\cyre }\IeC {\cyrn }\IeC {\cyri } \IeC {\cyri } \IeC {\cyri }\IeC {\cyrs }\IeC {\cyrt }\IeC {\cyro }\IeC {\cyrch }\IeC {\cyrn }\IeC {\cyri }\IeC {\cyrk }\IeC {\cyro }\IeC {\cyrv }\IeC {\cyrery }\IeC {\cyrh } \IeC {\cyrch }\IeC {\cyrl }\IeC {\cyre }\IeC {\cyrn }\IeC {\cyro }\IeC {\cyrv }).}{1}{section*.1}}
\@writefile{toc}{\contentsline {subsection}{\IeC {\CYRM }\IeC {\cyre }\IeC {\cyrt }\IeC {\cyro }\IeC {\cyrd } \IeC {\cyrk }\IeC {\cyro }\IeC {\cyrn }\IeC {\cyrt }\IeC {\cyrr }\IeC {\cyro }\IeC {\cyrl }\IeC {\cyrsftsn }\IeC {\cyrn }\IeC {\cyro }\IeC {\cyrg }\IeC {\cyro } \IeC {\cyro }\IeC {\cyrb }\IeC {\cyrhrdsn }\IeC {\cyre }\IeC {\cyrm }\IeC {\cyra }}{2}{section*.2}}
\@writefile{toc}{\contentsline {subsection}{\IeC {\CYRYA }\IeC {\cyrv }\IeC {\cyrn }\IeC {\cyrery }\IeC {\cyre } \IeC {\cyrs }\IeC {\cyrh }\IeC {\cyre }\IeC {\cyrm }\IeC {\cyrery }}{3}{section*.3}}
\@writefile{toc}{\contentsline {subparagraph}{\IeC {\CYRA }\IeC {\cyrp }\IeC {\cyrp }\IeC {\cyrr }\IeC {\cyro }\IeC {\cyrk }\IeC {\cyrs }\IeC {\cyri }\IeC {\cyrm }\IeC {\cyra }\IeC {\cyrc }\IeC {\cyri }\IeC {\cyrya } \IeC {\cyri }\IeC {\cyrs }\IeC {\cyrt }\IeC {\cyro }\IeC {\cyrch }\IeC {\cyrn }\IeC {\cyri }\IeC {\cyrk }\IeC {\cyra }}{5}{section*.4}}
\@writefile{toc}{\contentsline {subsection}{\IeC {\CYRO }\IeC {\cyrp }\IeC {\cyre }\IeC {\cyrr }\IeC {\cyra }\IeC {\cyrt }\IeC {\cyro }\IeC {\cyrr }\IeC {\cyrery } fvm \IeC {\cyri } fvc \IeC {\cyrv } OpenFOAM, \IeC {\CYRS }\IeC {\CYRL }\IeC {\CYRA }\IeC {\CYRU }}{6}{section*.5}}
\@writefile{toc}{\contentsline {subsection}{\IeC {\CYRZ }\IeC {\cyra }\IeC {\cyrd }\IeC {\cyra }\IeC {\cyrn }\IeC {\cyri }\IeC {\cyre }}{7}{section*.6}}
